<svg xmlns="http://www.w3.org/2000/svg" width="143.221" height="171.718" viewBox="0 0 143.221 171.718">
  <path id="Path_23066" data-name="Path 23066" d="M-2359.018-2589.076c-6.481-43.193,40.372-36.8,66.094-26.081s52.877,46.8,48.232,79.671-7.86,51.411-48.232,75.706-104.272-7.5-93.2-48.231S-2352.537-2545.882-2359.018-2589.076Z" transform="translate(2387.391 2623.046)" fill="#fd427c" opacity="0.1"/>
</svg>
